9.212513229298469400e-03,1.339349095643104989e-02,2.537400244344595324e-03,2.503322592076380124e-02,6.381974616057327007e-03,4.061329831471463536e-03,2.094579671437685892e-02,2.119852825080082229e-02
1.723364151884328177e-02,1.341050334625812357e-02,7.321202087089257425e-03,1.485697142758237756e-02,9.267664214892546576e-03,5.025375607852615792e-03,1.832052400997307914e-02,2.269410496142116804e-02
9.524368745486483379e-03,1.380486870636589425e-02,1.612451549659711398e-03,2.007430198039275929e-02,2.800000000000002574e-03,2.006389792637514134e-03,2.299759987476954204e-02,2.127969924599498394e-02
9.288702815786458594e-03,1.288447127359133512e-02,6.405497638747521469e-03,1.897096729215459049e-02,1.041537325303322839e-02,2.434419848752472550e-03,2.529825290410385452e-02,2.164439881354988937e-02
