\relax 
\providecommand\hyper@newdestlabel[2]{}
\providecommand\HyperFirstAtBeginDocument{\AtBeginDocument}
\HyperFirstAtBeginDocument{\ifx\hyper@anchor\@undefined
\global\let\oldcontentsline\contentsline
\gdef\contentsline#1#2#3#4{\oldcontentsline{#1}{#2}{#3}}
\global\let\oldnewlabel\newlabel
\gdef\newlabel#1#2{\newlabelxx{#1}#2}
\gdef\newlabelxx#1#2#3#4#5#6{\oldnewlabel{#1}{{#2}{#3}}}
\AtEndDocument{\ifx\hyper@anchor\@undefined
\let\contentsline\oldcontentsline
\let\newlabel\oldnewlabel
\fi}
\fi}
\global\let\hyper@last\relax 
\gdef\HyperFirstAtBeginDocument#1{#1}
\providecommand\HyField@AuxAddToFields[1]{}
\providecommand\HyField@AuxAddToCoFields[2]{}
\bibstyle{unsrtnat}
\citation{bollen2010trends,ieee2009,bollen2006book}
\citation{landi2008performances}
\citation{samotyj2001cost}
\citation{targosz2007pan}
\citation{seymour2001sete,targosz2007pan}
\citation{ieee2009}
\citation{ribeiro2016,gonzalez2015automatic,dalai2013rough,carniato2009development,back2013desenvolvimento}
\citation{ribeiro2016,li2016detection,zhang2010dsp,wang2004classification,rodriguez2016real}
\citation{bollen2006book}
\citation{li2016detection,ruiz2011embedded,wang2012design}
\citation{borges2015comparison,Borges2016,markovska2017optimal}
\@writefile{toc}{\contentsline {section}{\numberline {1}Introdu\IeC {\c c}\IeC {\~a}o}{1}{section.1}}
\citation{jashfar2013classification}
\citation{ozgonenel2013new}
\citation{borges2015comparison}
\citation{upadhyaya2016localization}
\citation{li2016detection}
\@writefile{toc}{\contentsline {section}{\numberline {2}Trabalhos Relacionados}{2}{section.2}}
\newlabel{sec:trabalhos}{{2}{2}{Trabalhos Relacionados}{section.2}{}}
\citation{markovska2017optimal}
\citation{ozgonenel2013new}
\citation{upadhyaya2016localization,ozgonenel2013new}
\citation{silva2010redes}
\citation{silva2010redes,haykin2009neural}
\citation{fausett1994fundamentals}
\citation{silva2010redes}
\citation{fausett1994fundamentals}
\citation{fausett1994fundamentals}
\citation{harrington2012machine,haykin2009neural}
\citation{harrington2012machine,haykin2009neural}
\citation{dos2002teoria}
\@writefile{toc}{\contentsline {section}{\numberline {3}Fundamenta\IeC {\c c}\IeC {\~a}o Te\IeC {\'o}rica}{3}{section.3}}
\newlabel{sec:algoritmos}{{3}{3}{Fundamentação Teórica}{section.3}{}}
\@writefile{toc}{\contentsline {subsection}{\numberline {3.1}Redes Perceptron Multicamadas (MLP)}{3}{subsection.3.1}}
\@writefile{toc}{\contentsline {subsection}{\numberline {3.2}M\IeC {\'a}quina de Vetor de Suporte (SVM)}{3}{subsection.3.2}}
\citation{lorena2003carvalho}
\citation{haykin2009neural}
\citation{breiman2001random}
\citation{wohlin2012experimentation}
\citation{ieee2009}
\citation{basili1994}
\@writefile{lof}{\contentsline {figure}{\numberline {1}{\ignorespaces Ilustra\IeC {\c c}\IeC {\~a}o do Hiperplano de Separa\IeC {\c c}\IeC {\~a}o (Fonte: \cite  {dos2002teoria})}}{4}{figure.1}}
\newlabel{fig:hiperplano}{{1}{4}{Ilustração do Hiperplano de Separação (Fonte: \cite {dos2002teoria})}{figure.1}{}}
\@writefile{toc}{\contentsline {subsection}{\numberline {3.3}Florestas Aleat\IeC {\'o}rias (\textit  {Random Forest})}{4}{subsection.3.3}}
\@writefile{toc}{\contentsline {section}{\numberline {4}Defini\IeC {\c c}\IeC {\~a}o do Experimento}{4}{section.4}}
\newlabel{sec:def_plan}{{4}{4}{Definição do Experimento}{section.4}{}}
\@writefile{toc}{\contentsline {subsection}{\numberline {4.1}Defini\IeC {\c c}\IeC {\~a}o do Objetivo}{4}{subsection.4.1}}
\@writefile{toc}{\contentsline {subsection}{\numberline {4.2}Planejamento}{5}{subsection.4.2}}
\@writefile{lot}{\contentsline {table}{\numberline {1}{\ignorespaces Par\IeC {\^a}metros dos Dist\IeC {\'u}rbios}}{5}{table.1}}
\newlabel{tab:parametros}{{1}{5}{Parâmetros dos Distúrbios}{table.1}{}}
\citation{ieee2009}
\citation{ieee2009}
\citation{scikit-learn}
\@writefile{toc}{\contentsline {section}{\numberline {5}Opera\IeC {\c c}\IeC {\~a}o do Experimento}{6}{section.5}}
\newlabel{sec:op_exp}{{5}{6}{Operação do Experimento}{section.5}{}}
\@writefile{toc}{\contentsline {subsection}{\numberline {5.1}Prepara\IeC {\c c}\IeC {\~a}o}{6}{subsection.5.1}}
\@writefile{toc}{\contentsline {subsection}{\numberline {5.2}Execu\IeC {\c c}\IeC {\~a}o}{6}{subsection.5.2}}
\citation{numpy}
\@writefile{lot}{\contentsline {table}{\numberline {2}{\ignorespaces Modelagem Matem\IeC {\'a}tica de Dist\IeC {\'u}rbios El\IeC {\'e}tricos}}{7}{table.2}}
\newlabel{tab:modelagem}{{2}{7}{Modelagem Matemática de Distúrbios Elétricos}{table.2}{}}
\@writefile{toc}{\contentsline {subsection}{\numberline {5.3}Coleta de Dados}{7}{subsection.5.3}}
\@writefile{toc}{\contentsline {subsection}{\numberline {5.4}Valida\IeC {\c c}\IeC {\~a}o dos Dados}{7}{subsection.5.4}}
\@writefile{toc}{\contentsline {section}{\numberline {6}Resultados}{7}{section.6}}
\newlabel{sec:resultados}{{6}{7}{Resultados}{section.6}{}}
\citation{rodriguez-fdez2015stac}
\@writefile{lot}{\contentsline {table}{\numberline {3}{\ignorespaces Tabela Hiper-par\IeC {\^a}metros}}{8}{table.3}}
\newlabel{tab:parameter}{{3}{8}{Tabela Hiper-parâmetros}{table.3}{}}
\@writefile{lot}{\contentsline {table}{\numberline {4}{\ignorespaces M\IeC {\'e}dia e Desvio das M\IeC {\'e}tricas Avaliadas}}{8}{table.4}}
\newlabel{tab:resultados}{{4}{8}{Média e Desvio das Métricas Avaliadas}{table.4}{}}
\@writefile{lot}{\contentsline {table}{\numberline {5}{\ignorespaces M\IeC {\'e}dias e Desvio do Random Forest com 9 \IeC {\'A}rvores}}{8}{table.5}}
\newlabel{tab:resultado_rf}{{5}{8}{Médias e Desvio do Random Forest com 9 Árvores}{table.5}{}}
\@writefile{toc}{\contentsline {subsection}{\numberline {6.1}An\IeC {\'a}lise e Interpreta\IeC {\c c}\IeC {\~a}o}{8}{subsection.6.1}}
\citation{ieee2009}
\@writefile{lot}{\contentsline {table}{\numberline {6}{\ignorespaces Classifica\IeC {\c c}\IeC {\~a}o do melhor algoritmo de acordo com a acur\IeC {\'a}cia}}{9}{table.6}}
\newlabel{tab:rank}{{6}{9}{Classificação do melhor algoritmo de acordo com a acurácia}{table.6}{}}
\@writefile{lot}{\contentsline {table}{\numberline {7}{\ignorespaces Classifica\IeC {\c c}\IeC {\~a}o dos algoritmos em termo das m\IeC {\'e}tricas de efici\IeC {\^e}ncia}}{9}{table.7}}
\newlabel{tab:rank_tempo}{{7}{9}{Classificação dos algoritmos em termo das métricas de eficiência}{table.7}{}}
\@writefile{toc}{\contentsline {subsection}{\numberline {6.2}Amea\IeC {\c c}as \IeC {\`a} Validade}{9}{subsection.6.2}}
\@writefile{toc}{\contentsline {section}{\numberline {7}Conclus\IeC {\~o}es e Trabalhos Futuros}{9}{section.7}}
\newlabel{sec:conc}{{7}{9}{Conclusões e Trabalhos Futuros}{section.7}{}}
\bibdata{references}
\bibcite{bollen2010trends}{{1}{2010}{{Bollen et~al.}}{{Bollen, Ribeiro, Gu, and Duque}}}
\bibcite{ieee2009}{{2}{2009}{{Association et~al.}}{{}}}
\bibcite{bollen2006book}{{3}{2006}{{Bollen and Gu}}{{}}}
\bibcite{landi2008performances}{{4}{2008}{{Landi and Luiso}}{{}}}
\bibcite{samotyj2001cost}{{5}{2001}{{Samotyj}}{{}}}
\bibcite{targosz2007pan}{{6}{2007}{{Targosz and Manson}}{{}}}
\bibcite{seymour2001sete}{{7}{2001}{{Seymour and Horsley}}{{}}}
\bibcite{ribeiro2016}{{8}{2016}{{Ribeiro et~al.}}{{Ribeiro, Dias, Barbosa, and Ferreira}}}
\bibcite{gonzalez2015automatic}{{9}{2015}{{Gonzalez-Cordoba et~al.}}{{Gonzalez-Cordoba, Mejia-Barron, and Valtierra-Rodriguez}}}
\bibcite{dalai2013rough}{{10}{2013}{{Dalai et~al.}}{{Dalai, Chatterjee, Dey, Chakravorti, and Bhattacharya}}}
\bibcite{carniato2009development}{{11}{2009}{{Carniato et~al.}}{{Carniato, Godoy, and Pinto}}}
\bibcite{back2013desenvolvimento}{{12}{2013}{{Back}}{{}}}
\bibcite{li2016detection}{{13}{2016}{{Li et~al.}}{{Li, Teng, Tang, and Song}}}
\bibcite{zhang2010dsp}{{14}{2010}{{Zhang and Li}}{{}}}
\bibcite{wang2004classification}{{15}{2004}{{Wang et~al.}}{{Wang, Rowe, and Mamishev}}}
\bibcite{rodriguez2016real}{{16}{2016}{{Rodriguez et~al.}}{{Rodriguez, Hernandez, Rangel, and Gonzalez}}}
\bibcite{ruiz2011embedded}{{17}{2011}{{Ruiz-Llata et~al.}}{{Ruiz-Llata, Guarnizo, and Boya}}}
\bibcite{wang2012design}{{18}{2012}{{Wang et~al.}}{{Wang, Pan, Li, and Tao}}}
\bibcite{borges2015comparison}{{19}{2015}{{Borges et~al.}}{{Borges, Fernandes, Lucas, and Silva}}}
\bibcite{Borges2016}{{20}{2016}{{Borges et~al.}}{{Borges, Silva, Fernandes, and Moraes}}}
\bibcite{markovska2017optimal}{{21}{2017}{{Markovska and Taskovski}}{{}}}
\bibcite{jashfar2013classification}{{22}{2013}{{Jashfar et~al.}}{{Jashfar, ESMAEILI, JAHROMI, and Rahmanian}}}
\bibcite{ozgonenel2013new}{{23}{2013}{{Ozgonenel et~al.}}{{Ozgonenel, Yalcin, Guney, and Kurt}}}
\bibcite{upadhyaya2016localization}{{24}{2016}{{Upadhyaya and Mohanty}}{{}}}
\bibcite{silva2010redes}{{25}{2010}{{Silva et~al.}}{{Silva, Spatti, and Flauzino}}}
\bibcite{haykin2009neural}{{26}{2009}{{Haykin et~al.}}{{Haykin, Haykin, Haykin, and Haykin}}}
\bibcite{fausett1994fundamentals}{{27}{1994}{{Fausett and Fausett}}{{}}}
\bibcite{harrington2012machine}{{28}{2012}{{Harrington}}{{}}}
\bibcite{dos2002teoria}{{29}{2002}{{dos Santos}}{{}}}
\bibcite{lorena2003carvalho}{{30}{2003}{{Lorena}}{{}}}
\bibcite{breiman2001random}{{31}{2001}{{Breiman}}{{}}}
\bibcite{wohlin2012experimentation}{{32}{2012}{{Wohlin et~al.}}{{Wohlin, Runeson, H{\"o}st, Ohlsson, Regnell, and Wessl{\'e}n}}}
\bibcite{basili1994}{{33}{1994}{{Basili et~al.}}{{Basili, Caldiera, and Rombach}}}
\bibcite{scikit-learn}{{34}{2011}{{Pedregosa et~al.}}{{Pedregosa, Varoquaux, Gramfort, Michel, Thirion, Grisel, Blondel, Prettenhofer, Weiss, Dubourg, Vanderplas, Passos, Cournapeau, Brucher, Perrot, and Duchesnay}}}
\bibcite{numpy}{{35}{2001--}{{Jones et~al.}}{{Jones, Oliphant, Peterson, et~al.}}}
\bibcite{rodriguez-fdez2015stac}{{36}{2015}{{Rodr\'{i}guez-Fdez et~al.}}{{Rodr\'{i}guez-Fdez, Canosa, Mucientes, and Bugar\'{i}n}}}
