This is BibTeX, Version 0.99dThe top-level auxiliary file: document.aux
The style file: unsrtnat.bst
Database file #1: references.bib
Repeated entry---line 163 of file references.bib
 : @book{silva2010redes
 :                     ,
I'm skipping whatever remains of this entry
Repeated entry---line 226 of file references.bib
 : @book{fausett1994fundamentals
 :                              ,
I'm skipping whatever remains of this entry
Repeated entry---line 250 of file references.bib
 : @book{harrington2012machine
 :                            ,
I'm skipping whatever remains of this entry
Repeated entry---line 265 of file references.bib
 : @book{haykin2009neural
 :                       ,
I'm skipping whatever remains of this entry
Repeated entry---line 300 of file references.bib
 : @article{li2016detection
 :                         ,
I'm skipping whatever remains of this entry
Repeated entry---line 344 of file references.bib
 : @article{lorena2003carvalho
 :                            ,
I'm skipping whatever remains of this entry
Repeated entry---line 389 of file references.bib
 : @phdthesis{dos2002teoria
 :                         ,
I'm skipping whatever remains of this entry
Repeated entry---line 421 of file references.bib
 : @article{jashfar2013classification
 :                                   ,
I'm skipping whatever remains of this entry
Repeated entry---line 432 of file references.bib
 : @article{ozgonenel2013new
 :                          ,
I'm skipping whatever remains of this entry
Repeated entry---line 464 of file references.bib
 : @inproceedings{markovska2017optimal
 :                                    ,
I'm skipping whatever remains of this entry
Warning--empty journal in seymour2001sete
Warning--empty journal in back2013desenvolvimento
Warning--can't use both author and editor fields in Borges2016
Warning--there's a number but no series in fausett1994fundamentals
(There were 10 error messages)
